…
    ## # A tibble: 0 x 6
    ## # … with 6 variables: address <chr>, city <chr>, state <chr>, zip <chr>,
    ## #   longitude <dbl>, latitude <dbl>

### Exercise 6

``` r
dennys %>%
  mutate(country = "United States")
```

    ## # A tibble: 1,643 x 7
    ##    address                city         state zip   longitude latitude country   
    ##    <chr>                  <chr>        <chr> <chr>     <dbl>    <dbl> <chr>     
    ##  1 2900 Denali            Anchorage    AK    99503    -150.      61.2 United St…
    ##  2 3850 Debarr Road       Anchorage    AK    99508    -150.      61.2 United St…
    ##  3 1929 Airport Way       Fairbanks    AK    99701    -148.      64.8 United St…
    ##  4 230 Connector Dr       Auburn       AL    36849     -85.5     32.6 United St…
    ##  5 224 Daniel Payne Driv… Birmingham   AL    35207     -86.8     33.6 United St…
    ##  6 900 16th St S, Common… Birmingham   AL    35294     -86.8     33.5 United St…
    ##  7 5931 Alabama Highway,… Cullman      AL    35056     -86.9     34.2 United St…
    ##  8 2190 Ross Clark Circle Dothan       AL    36301     -85.4     31.2 United St…
    ##  9 900 Tyson Rd           Hope Hull (… AL    36043     -86.4     32.2 United St…
    ## 10 4874 University Drive  Huntsville   AL    35816     -86.7     34.7 United St…
    ## # … with 1,633 more rows
…
``` r
###Texas has the most and Maine and Vermont have the least
```

\#\#\#\#Exercise 10

``` r
dennys %>%
  count(state) %>%
  inner_join(states, by = c("state" = "abbreviation")) %>%
  mutate(dennys_per_sqmile = 1000*n/area) %>%
 arrange(dennys_per_sqmile)
```

    ## # A tibble: 51 x 5
    ##    state     n name            area dennys_per_sqmile
    ##    <chr> <int> <chr>          <dbl>             <dbl>
    ##  1 AK        3 Alaska       665384.           0.00451
    ##  2 MT        4 Montana      147040.           0.0272 
    ##  3 SD        3 South Dakota  77116.           0.0389 
    ##  4 WY        4 Wyoming       97813.           0.0409 
    ##  5 IA        3 Iowa          56273.           0.0533 
    ##  6 ND        4 North Dakota  70698.           0.0566 
    ##  7 NE        5 Nebraska      77348.           0.0646 
    ##  8 LA        4 Louisiana     52378.           0.0764 
    ##  9 KS        8 Kansas        82278.           0.0972 
    ## 10 MS        5 Mississippi   48432.           0.103  
    ## # … with 41 more rows

``` r
###least alaska, most-DC
laquinta%>%
  count(state) %>%
  inner_join(states, by = c("state" = "abbreviation")) %>%
  mutate(laquinta_per_sqmile = 1000*n/area) %>%
  arrange(laquinta_per_sqmile)
```

    ## # A tibble: 48 x 5
    ##    state     n name            area laquinta_per_sqmile
    ##    <chr> <int> <chr>          <dbl>               <dbl>
    ##  1 AK        2 Alaska       665384.             0.00301
    ##  2 SD        2 South Dakota  77116.             0.0259 
    ##  3 ME        1 Maine         35380.             0.0283 
    ##  4 WY        3 Wyoming       97813.             0.0307 
    ##  5 MI        4 Michigan      96714.             0.0414 
    ##  6 MT        9 Montana      147040.             0.0612 
    ##  7 NE        5 Nebraska      77348.             0.0646 
    ##  8 ND        5 North Dakota  70698.             0.0707 
    ##  9 IA        4 Iowa          56273.             0.0711 
    ## 10 NV        8 Nevada       110572.             0.0724 
    ## # … with 38 more rows
…
